,precision,recall,f1-score,support
U.S. NEWS,0.4,0.07194244604316546,0.12195121951219512,139.0
COMEDY,0.6100478468899522,0.4722222222222222,0.5323590814196242,540.0
PARENTING,0.582534611288605,0.6215909090909091,0.6014293567894448,880.0
WORLD NEWS,0.4078014184397163,0.3474320241691843,0.37520391517128876,331.0
CULTURE & ARTS,0.8205128205128205,0.2962962962962963,0.43537414965986393,108.0
TECH,0.5550847457627118,0.6208530805687204,0.5861297539149888,211.0
SPORTS,0.7560975609756098,0.730844793713163,0.7432567432567432,509.0
ENTERTAINMENT,0.6785889269965704,0.7973517559009787,0.7331921651667548,1737.0
POLITICS,0.7437210436478907,0.8565009828699803,0.796136778908901,3561.0
WEIRD NEWS,0.5286343612334802,0.43010752688172044,0.47430830039525695,279.0
ENVIRONMENT,0.6323529411764706,0.296551724137931,0.40375586854460094,145.0
EDUCATION,0.44594594594594594,0.3235294117647059,0.37499999999999994,102.0
CRIME,0.6888888888888889,0.6078431372549019,0.6458333333333334,357.0
SCIENCE,0.7204968944099379,0.5225225225225225,0.6057441253263708,222.0
WELLNESS,0.6036191296854804,0.7805013927576602,0.6807580174927114,1795.0
BUSINESS,0.5096011816838996,0.575,0.5403288958496475,600.0
STYLE & BEAUTY,0.759391771019678,0.8645621181262729,0.8085714285714286,982.0
FOOD & DRINK,0.6792452830188679,0.7949526813880127,0.7325581395348837,634.0
MEDIA,0.5470383275261324,0.5322033898305085,0.5395189003436427,295.0
QUEER VOICES,0.7063253012048193,0.7374213836477987,0.7215384615384615,636.0
HOME & LIVING,0.8313817330210773,0.8217592592592593,0.8265424912689174,432.0
WOMEN,0.4875444839857651,0.38268156424581007,0.4287949921752739,358.0
BLACK VOICES,0.5400943396226415,0.4989106753812636,0.5186862967157417,459.0
TRAVEL,0.8111111111111111,0.8111111111111111,0.8111111111111111,990.0
MONEY,0.5572519083969466,0.4124293785310734,0.474025974025974,177.0
RELIGION,0.5420875420875421,0.6216216216216216,0.579136690647482,259.0
LATINO VOICES,0.6617647058823529,0.39823008849557523,0.49723756906077343,113.0
IMPACT,0.41836734693877553,0.3524355300859599,0.38258164852255055,349.0
WEDDINGS,0.8496932515337423,0.7568306010928961,0.8005780346820809,366.0
COLLEGE,0.55,0.4782608695652174,0.5116279069767442,115.0
PARENTS,0.4911504424778761,0.2803030303030303,0.35691318327974275,396.0
ARTS & CULTURE,0.4017857142857143,0.3333333333333333,0.36437246963562747,135.0
STYLE,0.4236111111111111,0.26991150442477874,0.32972972972972975,226.0
GREEN,0.4349593495934959,0.4068441064638783,0.42043222003929276,263.0
TASTE,0.45555555555555555,0.3886255924170616,0.41943734015345274,211.0
HEALTHY LIVING,0.4699248120300752,0.1865671641791045,0.26709401709401714,670.0
THE WORLDPOST,0.5331412103746398,0.5040871934604905,0.5182072829131653,367.0
GOOD NEWS,0.3945578231292517,0.41134751773049644,0.4027777777777778,141.0
WORLDPOST,0.4444444444444444,0.2471042471042471,0.31761786600496283,259.0
FIFTY,0.4174757281553398,0.3049645390070922,0.3524590163934426,141.0
ARTS,0.37341772151898733,0.3881578947368421,0.3806451612903226,152.0
DIVORCE,0.7385057471264368,0.747093023255814,0.7427745664739883,344.0
accuracy,0.6483369865624702,0.6483369865624702,0.6483369865624702,0.6483369865624702
macro avg,0.576279882921199,0.5067342772617289,0.5275174281119598,20986.0
weighted avg,0.6357418589398736,0.6483369865624702,0.6335086233431028,20986.0
